…
    ## Warning: le package 'igraph' a été compilé avec la version R 4.1.3

``` r
df = df %>% drop_na(Company)

my_count <- df %>%
  group_by(Company) %>%
  count(Company, sort=TRUE) 

my_count
```

    ## # A tibble: 153 x 2
    ## # Groups:   Company [153]
    ##    Company                                                 n
    ##    <chr>                                               <int>
    ##  1 McGill University - Desautels Faculty of Management    13
    ##  2 Deloitte                                                6
    ##  3 Novartis                                                5
    ##  4 Scotiabank                                              5
    ##  5 McGill University                                       4
    ##  6 Rogers Communications                                   4
    ##  7 Accenture                                               3
    ##  8 Air Transat                                             3
    ##  9 Desjardins                                              3
    ## 10 Metrolinx                                               3
    ## # ... with 143 more rows
…
