…
``` r
applications <- read_parquet("C:/Users/Mehdi/Desktop/2022-ona-assignements/app_data_sample.parquet")
```

Note that the `echo = FALSE` parameter was added to the code chunk to
prevent printing of the R code that generated the plot.

``` r
# get list of unique first names
name_of_examiner = applications %>% distinct(examiner_name_first)
name_of_examiner
```

    ## # A tibble: 2,595 x 1
    ##    examiner_name_first
    ##    <chr>              
    ##  1 JACQUELINE         
    ##  2 BEKIR              
    ##  3 CYNTHIA            
    ##  4 MARY               
    ##  5 MICHAEL            
    ##  6 LINDA              
    ##  7 KARA               
    ##  8 VANESSA            
    ##  9 TERESA             
    ## 10 SUN                
    ## # ... with 2,585 more rows

# Get Gender

``` r
library(dplyr)
gender = name_of_examiner %>% do(outcome = gender(.$examiner_name_first, method = "ssa")) %>% unnest(cols = c(outcome), keep_empty=TRUE) %>% 
  select(examiner_name_first = name, gender,proportion_female)

gender
```

    ## # A tibble: 1,822 x 3
    ##    examiner_name_first gender proportion_female
    ##    <chr>               <chr>              <dbl>
    ##  1 AARON               male              0.0082
    ##  2 ABDEL               male              0     
    ##  3 ABDOU               male              0     
    ##  4 ABDUL               male              0     
    ##  5 ABDULHAKIM          male              0     
    ##  6 ABDULLAH            male              0     
    ##  7 ABDULLAHI           male              0     
    ##  8 ABIGAIL             female            0.998 
    ##  9 ABIMBOLA            female            0.944 
    ## 10 ABRAHAM             male              0.0031
    ## # ... with 1,812 more rows

## Joining and Cleaning

``` r
# keep only the name and the gender columns in the table
gender = gender %>% select(examiner_name_first, gender)

# Adding the gender to the previous data frame
applications = applications %>% left_join(gender, by = "examiner_name_first")

applications
```

    ## # A tibble: 2,018,477 x 17
    ##    application_number filing_date examiner_name_last examiner_name_first
    ##    <chr>              <date>      <chr>              <chr>              
    ##  1 08284457           2000-01-26  HOWARD             JACQUELINE         
    ##  2 08413193           2000-10-11  YILDIRIM           BEKIR              
    ##  3 08531853           2000-05-17  HAMILTON           CYNTHIA            
    ##  4 08637752           2001-07-20  MOSHER             MARY               
    ##  5 08682726           2000-04-10  BARR               MICHAEL            
    ##  6 08687412           2000-04-28  GRAY               LINDA              
    ##  7 08716371           2004-01-26  MCMILLIAN          KARA               
    ##  8 08765941           2000-06-23  FORD               VANESSA            
    ##  9 08776818           2000-02-04  STRZELECKA         TERESA             
    ## 10 08809677           2002-02-20  KIM                SUN                
    ## # ... with 2,018,467 more rows, and 13 more variables:
    ## #   examiner_name_middle <chr>, examiner_id <dbl>, examiner_art_unit <dbl>,
    ## #   uspc_class <chr>, uspc_subclass <chr>, patent_number <chr>,
    ## #   patent_issue_date <date>, abandon_date <date>, disposal_type <chr>,
    ## #   appl_status_code <dbl>, appl_status_date <chr>, tc <dbl>, gender <chr>

# Race

``` r
surname = applications %>% distinct(surname = examiner_name_last) 

surname
```

    ## # A tibble: 3,806 x 1
    ##    surname   
    ##    <chr>     
    ##  1 HOWARD    
    ##  2 YILDIRIM  
    ##  3 HAMILTON  
    ##  4 MOSHER    
    ##  5 BARR      
    ##  6 GRAY      
    ##  7 MCMILLIAN 
    ##  8 FORD      
    ##  9 STRZELECKA
    ## 10 KIM       
    ## # ... with 3,796 more rows
…
race = race %>% 
  mutate(race = case_when(
    max_proba_race == pred.bla ~ "Black",
    max_proba_race == pred.whi ~ "white",
    max_proba_race == pred.asi ~ "Asian",
    max_proba_race == pred.his ~ "Hispanic",
    max_proba_race == pred.oth ~ "Other",
    TRUE ~ NA_character_
  ))

race
```

    ## # A tibble: 3,806 x 8
    ##    surname    pred.whi pred.bla pred.his pred.asi pred.oth max_proba_race race 
    ##    <chr>         <dbl>    <dbl>    <dbl>    <dbl>    <dbl>          <dbl> <chr>
    ##  1 HOWARD       0.643   0.295    0.0237   0.005     0.0333          0.643 white
    ##  2 YILDIRIM     0.861   0.0271   0.0609   0.0135    0.0372          0.861 white
    ##  3 HAMILTON     0.702   0.237    0.0245   0.0054    0.0309          0.702 white
    ##  4 MOSHER       0.947   0.00410  0.0241   0.00640   0.0185          0.947 white
    ##  5 BARR         0.827   0.117    0.0226   0.00590   0.0271          0.827 white
    ##  6 GRAY         0.687   0.251    0.0241   0.0054    0.0324          0.687 white
    ##  7 MCMILLIAN    0.359   0.574    0.0189   0.00260   0.0463          0.574 Black
    ##  8 FORD         0.620   0.32     0.0237   0.0045    0.0313          0.620 white
    ##  9 STRZELECKA   0.666   0.0853   0.137    0.0797    0.0318          0.666 white
    ## 10 KIM          0.0252  0.00390  0.00650  0.945     0.0198          0.945 Asian
    ## # ... with 3,796 more rows
…
# Tenure

``` r
# get filling dates, start and end date and calculate the tenure
dates = applications %>% select(examiner_id, filing_date, appl_status_date) %>% mutate(start_date = ymd(filing_date), end_date = as_date( dmy_hms(appl_status_date) )) %>% group_by(examiner_id) %>% 
  summarise(
    earliest = min(start_date, na.rm = TRUE), 
    latest = max(end_date, na.rm = TRUE),
    tenure = interval(earliest, latest) %/% days(1)
    ) %>% filter(year(latest)<2018)

dates
```

    ## # A tibble: 5,625 x 4
    ##    examiner_id earliest   latest     tenure
    ##          <dbl> <date>     <date>      <dbl>
    ##  1       59012 2004-07-28 2015-07-24   4013
    ##  2       59025 2009-10-26 2017-05-18   2761
    ##  3       59030 2005-12-12 2017-05-22   4179
    ##  4       59040 2007-09-11 2017-05-23   3542
    ##  5       59052 2001-08-21 2007-02-28   2017
    ##  6       59054 2000-11-10 2016-12-23   5887
    ##  7       59055 2004-11-02 2007-12-26   1149
    ##  8       59056 2000-03-24 2017-05-22   6268
    ##  9       59074 2000-01-31 2017-03-17   6255
    ## 10       59081 2011-04-21 2017-05-19   2220
    ## # ... with 5,615 more rows

``` r
# Join to data frame
applications = applications %>% left_join(dates, by = "examiner_id")
applications
```

    ## # A tibble: 2,018,477 x 21
    ##    application_number filing_date examiner_name_last examiner_name_first
    ##    <chr>              <date>      <chr>              <chr>              
    ##  1 08284457           2000-01-26  HOWARD             JACQUELINE         
    ##  2 08413193           2000-10-11  YILDIRIM           BEKIR              
    ##  3 08531853           2000-05-17  HAMILTON           CYNTHIA            
    ##  4 08637752           2001-07-20  MOSHER             MARY               
    ##  5 08682726           2000-04-10  BARR               MICHAEL            
    ##  6 08687412           2000-04-28  GRAY               LINDA              
    ##  7 08716371           2004-01-26  MCMILLIAN          KARA               
    ##  8 08765941           2000-06-23  FORD               VANESSA            
    ##  9 08776818           2000-02-04  STRZELECKA         TERESA             
    ## 10 08809677           2002-02-20  KIM                SUN                
    ## # ... with 2,018,467 more rows, and 17 more variables:
    ## #   examiner_name_middle <chr>, examiner_id <dbl>, examiner_art_unit <dbl>,
    ## #   uspc_class <chr>, uspc_subclass <chr>, patent_number <chr>,
    ## #   patent_issue_date <date>, abandon_date <date>, disposal_type <chr>,
    ## #   appl_status_code <dbl>, appl_status_date <chr>, tc <dbl>, gender <chr>,
    ## #   race <chr>, earliest <date>, latest <date>, tenure <dbl>
…
We see that examiner 72253 has the biggest degree of centrality and the
highest associated betweeness. The examiner 72814 seems also interesting
because of it’s high degree of centrality. Let’s explore these two.

``` r
applications[applications$examiner_id==72253,]
```

    ## # A tibble: 9,628 x 21
    ##    application_number filing_date examiner_name_last examiner_name_first
    ##    <chr>              <date>      <chr>              <chr>              
    ##  1 <NA>               NA          <NA>               <NA>               
    ##  2 09242244           2000-02-29  WOITACH            JOSEPH             
    ##  3 09402130           2000-02-02  WOITACH            JOSEPH             
    ##  4 09402527           2000-01-03  WOITACH            JOSEPH             
    ##  5 09403707           2000-03-17  WOITACH            JOSEPH             
    ##  6 09423935           2000-03-13  WOITACH            JOSEPH             
    ##  7 09446717           2000-04-13  WOITACH            JOSEPH             
    ##  8 <NA>               NA          <NA>               <NA>               
    ##  9 09463276           2000-05-12  WOITACH            JOSEPH             
    ## 10 <NA>               NA          <NA>               <NA>               
    ## # ... with 9,618 more rows, and 17 more variables: examiner_name_middle <chr>,
    ## #   examiner_id <dbl>, examiner_art_unit <dbl>, uspc_class <chr>,
    ## #   uspc_subclass <chr>, patent_number <chr>, patent_issue_date <date>,
    ## #   abandon_date <date>, disposal_type <chr>, appl_status_code <dbl>,
    ## #   appl_status_date <chr>, tc <dbl>, gender <chr>, race <chr>,
    ## #   earliest <date>, latest <date>, tenure <dbl>

This examiner has been working for 17 years. He has been in the art unit
1632 during all this time. This may explain his importance in the
network as he is very experienced and should have developed some strong
relationships and influence. This person seems to correspond to the
central node of the network at the bottom of the graph.

``` r
applications[applications$examiner_id==72814,]
```

    ## # A tibble: 9,550 x 21
    ##    application_number filing_date examiner_name_last examiner_name_first
    ##    <chr>              <date>      <chr>              <chr>              
    ##  1 <NA>               NA          <NA>               <NA>               
    ##  2 <NA>               NA          <NA>               <NA>               
    ##  3 <NA>               NA          <NA>               <NA>               
    ##  4 <NA>               NA          <NA>               <NA>               
    ##  5 <NA>               NA          <NA>               <NA>               
    ##  6 <NA>               NA          <NA>               <NA>               
    ##  7 <NA>               NA          <NA>               <NA>               
    ##  8 09486623           2000-07-06  MARSCHEL           ARDIN              
    ##  9 <NA>               NA          <NA>               <NA>               
    ## 10 09488339           2000-01-20  MARSCHEL           ARDIN              
    ## # ... with 9,540 more rows, and 17 more variables: examiner_name_middle <chr>,
    ## #   examiner_id <dbl>, examiner_art_unit <dbl>, uspc_class <chr>,
    ## #   uspc_subclass <chr>, patent_number <chr>, patent_issue_date <date>,
    ## #   abandon_date <date>, disposal_type <chr>, appl_status_code <dbl>,
    ## #   appl_status_date <chr>, tc <dbl>, gender <chr>, race <chr>,
    ## #   earliest <date>, latest <date>, tenure <dbl>
…
