…
``` r
library(ggraph)
```

    ## Warning: le package 'ggraph' a été compilé avec la version R 4.1.3

``` r
DATASET_EX2 <- read_excel("C:/Users/Mehdi/Desktop/2022-ona-assignements/EX2/DATASET_EX2.xlsx")
df = DATASET_EX2
df
```

    ## # A tibble: 34 x 2
    ##    X     Y    
    ##    <chr> <chr>
    ##  1 1     2    
    ##  2 2     A    
    ##  3 2     1    
    ##  4 A     2    
    ##  5 A     B    
    ##  6 A     C    
    ##  7 B     A    
    ##  8 B     C    
    ##  9 B     D    
    ## 10 B     3    
    ## # ... with 24 more rows
…
